<?xml version="1.0" encoding="utf-8"?>
<!-- Generator: Adobe Illustrator 26.4.1, SVG Export Plug-In . SVG Version: 6.00 Build 0)  -->
<svg version="1.1" id="Layer_1" xmlns="http://www.w3.org/2000/svg" xmlns:xlink="http://www.w3.org/1999/xlink" x="0px" y="0px"
	 viewBox="0 0 640 548" enable-background="new 0 0 640 548" xml:space="preserve">
<g>
	<g>
		<g>
			<rect x="117.365" y="207.381" fill="#B593FF" width="6.334" height="1.5"/>
			<rect x="182.137" y="207.381" fill="#B593FF" width="13.486" height="1.5"/>
			<rect x="164.156" y="207.381" fill="#B593FF" width="13.486" height="1.5"/>
			<rect x="146.175" y="207.381" fill="#B593FF" width="13.485" height="1.5"/>
			<rect x="128.194" y="207.381" fill="#B593FF" width="13.486" height="1.5"/>
			<rect x="200.117" y="207.381" fill="#B593FF" width="6.334" height="1.5"/>
		</g>
		<g>
			<rect x="65.128" y="207.381" fill="#6FDAC9" width="52.236" height="1.5"/>
		</g>
		<g>
			<rect x="31.414" y="207.381" fill="#6FDAC9" width="25.415" height="1.5"/>
		</g>
		<g>
			<rect x="7.567" y="207.381" fill="#6FDAC9" width="15.547" height="1.5"/>
		</g>
		<g>
			<rect x="270.256" y="257.435" fill="#E7E4F2" width="2.499" height="1.5"/>
			<rect x="262.758" y="257.435" fill="#E7E4F2" width="2.499" height="1.5"/>
			<rect x="255.261" y="257.435" fill="#E7E4F2" width="2.499" height="1.5"/>
			<rect x="247.763" y="257.435" fill="#E7E4F2" width="2.499" height="1.5"/>
			<rect x="240.266" y="257.435" fill="#E7E4F2" width="2.499" height="1.5"/>
			<rect x="232.768" y="257.435" fill="#E7E4F2" width="2.5" height="1.5"/>
			<rect x="225.271" y="257.435" fill="#E7E4F2" width="2.5" height="1.5"/>
			<rect x="217.773" y="257.435" fill="#E7E4F2" width="2.499" height="1.5"/>
			<rect x="210.276" y="257.435" fill="#E7E4F2" width="2.499" height="1.5"/>
			<rect x="202.778" y="257.435" fill="#E7E4F2" width="2.499" height="1.5"/>
			<rect x="195.281" y="257.435" fill="#E7E4F2" width="2.499" height="1.5"/>
			<rect x="187.783" y="257.435" fill="#E7E4F2" width="2.5" height="1.5"/>
			<rect x="180.286" y="257.435" fill="#E7E4F2" width="2.5" height="1.5"/>
			<rect x="172.789" y="257.435" fill="#E7E4F2" width="2.499" height="1.5"/>
			<rect x="165.291" y="257.435" fill="#E7E4F2" width="2.499" height="1.5"/>
			<rect x="157.793" y="257.435" fill="#E7E4F2" width="2.499" height="1.5"/>
			<rect x="150.296" y="257.435" fill="#E7E4F2" width="2.499" height="1.5"/>
			<rect x="142.798" y="257.435" fill="#E7E4F2" width="2.5" height="1.5"/>
			<rect x="135.301" y="257.435" fill="#E7E4F2" width="2.5" height="1.5"/>
			<rect x="127.804" y="257.435" fill="#E7E4F2" width="2.499" height="1.5"/>
			<rect x="120.306" y="257.435" fill="#E7E4F2" width="2.499" height="1.5"/>
			<rect x="112.809" y="257.435" fill="#E7E4F2" width="2.499" height="1.5"/>
			<rect x="105.311" y="257.435" fill="#E7E4F2" width="2.499" height="1.5"/>
			<rect x="97.813" y="257.435" fill="#E7E4F2" width="2.499" height="1.5"/>
			<rect x="90.316" y="257.435" fill="#E7E4F2" width="2.5" height="1.5"/>
			<rect x="82.818" y="257.435" fill="#E7E4F2" width="2.5" height="1.5"/>
			<rect x="75.321" y="257.435" fill="#E7E4F2" width="2.499" height="1.5"/>
			<rect x="67.824" y="257.435" fill="#E7E4F2" width="2.499" height="1.5"/>
			<rect x="60.326" y="257.435" fill="#E7E4F2" width="2.499" height="1.5"/>
			<rect x="52.829" y="257.435" fill="#E7E4F2" width="2.499" height="1.5"/>
			<rect x="45.331" y="257.435" fill="#E7E4F2" width="2.5" height="1.5"/>
			<rect x="37.833" y="257.435" fill="#E7E4F2" width="2.5" height="1.5"/>
			<rect x="30.336" y="257.435" fill="#E7E4F2" width="2.499" height="1.5"/>
			<rect x="22.839" y="257.435" fill="#E7E4F2" width="2.499" height="1.5"/>
			<rect x="15.341" y="257.435" fill="#E7E4F2" width="2.499" height="1.5"/>
		</g>
		<g>
			<rect x="217.162" y="307.488" fill="#6FDAC9" width="68.137" height="1.5"/>
		</g>
		<g>
			<rect x="36.348" y="307.488" fill="#FF9D73" width="161.822" height="1.5"/>
		</g>
		<g>
			<rect x="324.43" y="407.596" fill="#6FDAC9" width="42.165" height="1.5"/>
		</g>
		<g>
			<rect x="168.575" y="407.596" fill="#6FDAC9" width="137.593" height="1.5"/>
		</g>
		<g>
			<rect x="336.874" y="357.542" fill="#FF9D73" width="4.998" height="1.5"/>
			<rect x="326.877" y="357.542" fill="#FF9D73" width="4.998" height="1.5"/>
			<rect x="316.88" y="357.542" fill="#FF9D73" width="4.999" height="1.5"/>
			<rect x="306.883" y="357.542" fill="#FF9D73" width="4.999" height="1.5"/>
			<rect x="296.887" y="357.542" fill="#FF9D73" width="4.999" height="1.5"/>
			<rect x="286.89" y="357.542" fill="#FF9D73" width="4.999" height="1.5"/>
			<rect x="276.894" y="357.542" fill="#FF9D73" width="4.998" height="1.5"/>
			<rect x="266.897" y="357.542" fill="#FF9D73" width="4.998" height="1.5"/>
			<rect x="256.9" y="357.542" fill="#FF9D73" width="4.998" height="1.5"/>
			<rect x="246.904" y="357.542" fill="#FF9D73" width="4.998" height="1.5"/>
			<rect x="236.907" y="357.542" fill="#FF9D73" width="4.999" height="1.5"/>
			<rect x="226.91" y="357.542" fill="#FF9D73" width="4.999" height="1.5"/>
			<rect x="216.914" y="357.542" fill="#FF9D73" width="4.999" height="1.5"/>
			<rect x="206.917" y="357.542" fill="#FF9D73" width="4.999" height="1.5"/>
			<rect x="196.92" y="357.542" fill="#FF9D73" width="4.998" height="1.5"/>
			<rect x="186.924" y="357.542" fill="#FF9D73" width="4.998" height="1.5"/>
			<rect x="176.927" y="357.542" fill="#FF9D73" width="4.998" height="1.5"/>
			<rect x="166.931" y="357.542" fill="#FF9D73" width="4.998" height="1.5"/>
			<rect x="156.934" y="357.542" fill="#FF9D73" width="4.999" height="1.5"/>
			<rect x="146.937" y="357.542" fill="#FF9D73" width="4.999" height="1.5"/>
			<rect x="136.94" y="357.542" fill="#FF9D73" width="4.999" height="1.5"/>
			<rect x="126.944" y="357.542" fill="#FF9D73" width="4.999" height="1.5"/>
			<rect x="116.947" y="357.542" fill="#FF9D73" width="4.999" height="1.5"/>
		</g>
		<g>
			<rect x="288.82" y="457.649" fill="#FF9D73" width="90.58" height="1.5"/>
		</g>
		<g>
			<rect x="198.17" y="457.649" fill="#E7E4F2" width="63.425" height="1.5"/>
		</g>
		<g>
			<rect x="364.957" y="507.703" fill="#B593FF" width="16.891" height="1.5"/>
			<rect x="343.843" y="507.703" fill="#B593FF" width="16.891" height="1.5"/>
			<rect x="322.729" y="507.703" fill="#B593FF" width="16.891" height="1.5"/>
			<rect x="301.616" y="507.703" fill="#B593FF" width="16.891" height="1.5"/>
			<rect x="280.502" y="507.703" fill="#B593FF" width="16.891" height="1.5"/>
			<rect x="259.389" y="507.703" fill="#B593FF" width="16.891" height="1.5"/>
			<rect x="238.275" y="507.703" fill="#B593FF" width="16.891" height="1.5"/>
			<rect x="217.162" y="507.703" fill="#B593FF" width="16.891" height="1.5"/>
		</g>
	</g>
	<g>
		<g>
			<path fill="#B593FF" d="M204.233,528.621h-1.5V510.45c0-91.747-74.64-166.388-166.386-166.388v-1.5
				c92.573,0,167.886,75.314,167.886,167.888V528.621z"/>
		</g>
		<g>
			<path fill="#B593FF" d="M302.813,289.659c-66.153-79.701-163.276-125.412-266.466-125.412H1.894v-1.5h34.454
				c103.638,0,201.182,45.908,267.62,125.954L302.813,289.659z"/>
		</g>
		<g>
			<path fill="#B593FF" d="M384.048,536.484h-1.5V510.45c0-68.27-19.936-134.356-57.653-191.114l1.249-0.83
				c37.881,57.005,57.904,123.378,57.904,191.944V536.484z"/>
		</g>
	</g>
	<g>
		<path fill="#6FDAC9" d="M375.026,308.988h-74v-1.5h74c5.897,0,10.696-4.798,10.696-10.696v-28.621h1.5v28.621
			C387.222,303.517,381.751,308.988,375.026,308.988z"/>
	</g>
	<g>
		<circle fill="#FF9B73" cx="293.155" cy="308.238" r="4.783"/>
	</g>
	<g>
		<path fill="#6FDAC9" d="M387.531,15.8c-9.209,0-17.717,10.587-23.958,29.812c-1.82,5.605-3.408,11.852-4.77,18.65
			c-26.728-17.843-45.239-21.4-53.583-14.875c-8.989,7.029-6.02,24.556,8.146,48.088l1.285-0.773
			c-13.528-22.474-16.709-39.72-8.507-46.133c7.75-6.06,25.986-2.302,52.337,15.363c-1.977,10.281-3.438,21.802-4.355,34.389
			c-51.389,3.803-84.892,16.928-84.518,33.666c0.204,9.156,10.892,17.604,30.095,23.788c5.549,1.787,11.72,3.35,18.429,4.691
			c-18.649,28.026-21.62,47.013-13.987,54.646c2.675,2.675,6.529,4.002,11.391,4.002c6.974,0,16.021-2.733,26.631-8.143
			c13.509-6.888,28.901-17.775,45.365-32.005c9.547,8.248,18.744,15.375,27.396,21.238c-6.146,31.147-16.393,46.697-26.167,47.873
			c-10.436,1.257-20.432-13.44-26.75-39.31l-1.457,0.356c8.709,35.66,21.026,40.521,27.082,40.521c0.475,0,0.912-0.03,1.305-0.078
			c10.525-1.267,21.11-16.869,27.397-48.411c8.201,5.465,15.898,9.783,22.913,12.818c7.865,3.401,14.721,5.106,20.269,5.106
			c5.015,0,8.961-1.394,11.612-4.188c12.908-13.602-7.212-52.79-49.234-97.371C419.928,48.381,403.17,15.8,387.531,15.8z
			 M365,46.075c5.936-18.287,14.148-28.775,22.531-28.775c8.382,0,16.594,10.488,22.531,28.775
			c5.853,18.032,9.351,42.645,10.273,71.792c-2.704-2.841-5.49-5.701-8.367-8.579c-8.144-8.144-15.908-15.399-23.277-21.833
			c5.835-5.037,11.546-9.662,17.098-13.839l-0.901-1.199c-5.631,4.236-11.422,8.928-17.34,14.042
			c-9.88-8.558-19.029-15.61-27.395-21.286C361.53,58.196,363.143,51.795,365,46.075z M420.59,133.726
			c0,11.563-0.372,22.222-1.051,32.006c-5.216,0.362-10.602,0.634-16.154,0.809c2.84-2.71,5.7-5.495,8.583-8.377l-1.061-1.061
			c-3.28,3.28-6.533,6.445-9.757,9.5c-4.442,0.119-8.98,0.182-13.62,0.182c-11.262,0-21.96-0.354-31.995-1.051
			c-0.699-10.06-1.064-20.742-1.064-32.009c0-4.639,0.062-9.178,0.181-13.618c3.055-3.225,6.221-6.478,9.502-9.759
			c7.961-7.96,15.774-15.273,23.378-21.889c7.399,6.438,15.199,13.712,23.375,21.889c3.28,3.281,6.446,6.535,9.502,9.759
			C420.528,124.548,420.59,129.087,420.59,133.726z M354.023,165.618c-12.185-0.894-23.364-2.299-33.367-4.192
			c8.402-12.324,19.339-25.698,32.459-39.677c-0.092,3.92-0.145,7.906-0.145,11.977
			C352.971,144.944,353.331,155.587,354.023,165.618z M359.83,66.847c8.124,5.534,16.998,12.366,26.559,20.62
			c-7.581,6.603-15.366,13.892-23.296,21.822c-2.903,2.903-5.687,5.755-8.367,8.562c0.176-5.54,0.435-10.932,0.795-16.128
			c3.344-0.233,6.755-0.431,10.242-0.586l-0.066-1.499c-3.423,0.153-6.776,0.346-10.06,0.576
			C356.531,88.026,357.937,76.848,359.83,66.847z M300.162,156.348c-18.278-5.886-28.869-14.048-29.055-22.394
			c-0.169-7.58,8.037-14.951,23.106-20.756c14.742-5.679,35.258-9.562,59.8-11.368c-0.391,5.679-0.67,11.573-0.841,17.654
			c-14.606,15.439-25.847,29.378-34.135,41.631C312.15,159.758,305.825,158.171,300.162,156.348z M341.484,211.636
			c-17.128,8.734-30.352,10.343-36.279,4.416c-5.928-5.927-4.318-19.15,4.416-36.279c2.742-5.377,6.143-11.066,10.122-16.996
			c10.281,1.976,21.804,3.438,34.389,4.354c0.577,7.922,1.358,15.465,2.365,22.537l1.485-0.212
			c-0.994-6.972-1.765-14.406-2.339-22.211c10.01,0.689,20.671,1.041,31.886,1.041c4.065,0,8.055-0.046,11.97-0.137
			c-4.041,3.792-8.037,7.422-11.967,10.842c-1.715-1.493-3.445-3.017-5.205-4.602l-1.004,1.114c1.698,1.529,3.382,3.012,5.06,4.473
			C370.078,194.052,354.845,204.823,341.484,211.636z M388.679,179.978c4.293-3.74,8.659-7.71,13.081-11.891
			c6.087-0.17,11.983-0.453,17.675-0.845c-0.925,12.618-2.372,23.738-4.207,33.407C407.142,195.122,398.274,188.269,388.679,179.978
			z M465.282,179.463c8.768,17.08,10.503,30.346,4.761,36.397c-7.003,7.378-25.438,4.541-53.404-14.259
			c1.905-9.939,3.391-21.409,4.326-34.465c8.419-0.613,16.384-1.471,23.842-2.571l-0.219-1.484
			c-7.359,1.086-15.216,1.934-23.52,2.544c0.662-9.759,1.021-20.381,1.021-31.899c0-4.104-0.048-8.09-0.138-11.969
			C441.778,142.88,456.649,162.646,465.282,179.463z"/>
		<path fill="#6FDAC9" d="M505.426,132.88c-0.859-11.912-18.841-21.969-48.518-27.899c16.751-25.149,22.368-45.015,14.592-54.015
			c-7.197-8.329-24.362-5.333-47.095,8.221l0.769,1.289c21.723-12.952,38.616-16.138,45.191-8.528
			c7.268,8.412,1.346,28.144-15.08,52.723c-7.873-1.512-16.525-2.744-25.888-3.645l-0.144,1.493
			c9.036,0.87,17.434,2.063,25.11,3.526c-4.054,5.968-8.711,12.209-13.945,18.637l1.163,0.947
			c5.438-6.678,10.246-13.128,14.408-19.275c29.044,5.759,47.137,15.499,47.941,26.635c0.738,10.231-13.948,20.041-39.286,26.24
			l0.356,1.457C491.498,154.202,506.233,144.067,505.426,132.88z"/>
		<path fill="#6FDAC9" d="M324.801,111.925l-1.213,0.882c3.378,4.648,7.134,9.484,11.162,14.373l1.157-0.954
			C331.899,121.36,328.162,116.549,324.801,111.925z"/>
	</g>
	<path fill="#ACA3D4" d="M251.704,29.527c-3.92-3.919-10.298-3.919-14.217,0c-1.224,1.224-2.065,2.688-2.525,4.241l-17.55-3.826
		c0.421-3.019-0.515-6.192-2.831-8.508c-3.919-3.919-10.297-3.92-14.217,0c-3.919,3.919-3.919,10.297,0,14.217
		c1.96,1.959,4.534,2.939,7.108,2.939c0.468,0,0.935-0.044,1.399-0.108l3.826,17.55c-1.553,0.459-3.016,1.301-4.24,2.524
		c-1.899,1.898-2.945,4.423-2.945,7.108s1.046,5.21,2.945,7.108c1.96,1.96,4.534,2.94,7.108,2.939c2.574,0,5.148-0.98,7.108-2.939
		c1.899-1.898,2.945-4.423,2.945-7.108c0-2.433-0.866-4.729-2.44-6.552l14.864-14.864c1.823,1.574,4.119,2.44,6.552,2.44
		c2.685,0,5.209-1.045,7.108-2.945C255.623,39.824,255.623,33.446,251.704,29.527z M201.425,34.59
		c-3.334-3.335-3.334-8.761,0-12.096c1.668-1.668,3.857-2.501,6.048-2.501c2.19,0,4.381,0.834,6.048,2.501
		c3.334,3.335,3.334,8.761,0,12.096C210.186,37.924,204.76,37.925,201.425,34.59z M210.341,38.175
		c1.553-0.459,3.017-1.301,4.24-2.524c1.224-1.224,2.065-2.688,2.525-4.241l17.55,3.827c-0.389,2.785,0.386,5.697,2.328,7.951
		l-14.866,14.866c-2.254-1.942-5.166-2.716-7.95-2.328L210.341,38.175z M221.614,71.712c-3.335,3.335-8.76,3.334-12.095,0
		c-1.616-1.615-2.505-3.764-2.505-6.048s0.89-4.433,2.505-6.048c1.667-1.667,3.857-2.501,6.048-2.501c2.19,0,4.38,0.834,6.047,2.501
		c1.616,1.615,2.505,3.764,2.505,6.048S223.229,70.097,221.614,71.712z M250.643,42.683c-1.616,1.616-3.764,2.505-6.048,2.505
		c-2.285,0-4.433-0.89-6.048-2.505c-3.334-3.334-3.334-8.76,0-12.095c1.667-1.667,3.857-2.5,6.048-2.5c2.19,0,4.38,0.833,6.048,2.5
		C253.977,33.922,253.978,39.349,250.643,42.683z"/>
	<path fill="#ACA3D4" d="M543.938,303.478c-1.898-1.899-4.423-2.944-7.108-2.944c-2.685,0-5.209,1.045-7.108,2.944
		c-1.224,1.224-2.065,2.687-2.525,4.24l-17.147-3.738c0.014-0.174,0.026-0.348,0.026-0.524c0-1.733-0.675-3.363-1.901-4.588
		c-1.225-1.225-2.855-1.9-4.588-1.9c-1.733,0-3.363,0.675-4.588,1.9c-1.226,1.226-1.901,2.855-1.901,4.588
		c0,1.733,0.675,3.363,1.901,4.588c1.225,1.226,2.854,1.9,4.588,1.9s3.363-0.675,4.588-1.9c0.739-0.739,1.273-1.626,1.585-2.593
		l17.131,3.735c-0.389,2.785,0.386,5.697,2.328,7.951l-14.866,14.866c-3.945-3.399-9.92-3.236-13.66,0.503
		c-3.919,3.919-3.919,10.297,0,14.217c1.959,1.959,4.534,2.94,7.108,2.94c2.574,0,5.148-0.98,7.108-2.94
		c3.74-3.741,3.902-9.714,0.503-13.66l14.865-14.865c1.823,1.574,4.119,2.44,6.552,2.44c2.686,0,5.21-1.046,7.108-2.944
		C547.858,313.774,547.858,307.397,543.938,303.478z M507.114,306.983c-0.942,0.942-2.195,1.461-3.527,1.461
		s-2.585-0.519-3.527-1.461s-1.461-2.195-1.461-3.528s0.519-2.585,1.461-3.528c0.942-0.942,2.195-1.461,3.527-1.461
		s2.585,0.519,3.527,1.461c0.942,0.942,1.461,2.195,1.461,3.528S508.057,306.041,507.114,306.983z M513.849,345.663
		c-3.335,3.334-8.761,3.334-12.096,0c-3.334-3.334-3.334-8.761,0-12.096c1.667-1.667,3.857-2.5,6.048-2.5
		c2.19,0,4.38,0.833,6.048,2.5C517.183,336.902,517.184,342.328,513.849,345.663z M542.878,316.634
		c-1.615,1.615-3.763,2.505-6.048,2.505c-2.284,0-4.432-0.89-6.048-2.505c-3.334-3.335-3.334-8.761,0-12.096
		c1.616-1.615,3.764-2.505,6.048-2.505c2.285,0,4.433,0.89,6.048,2.505C546.212,307.873,546.212,313.299,542.878,316.634z"/>
	<g>
		<path fill="#ACA3D4" d="M484.453,13.224c-1.661,0-3.323-0.632-4.588-1.897c-1.226-1.226-1.901-2.855-1.901-4.588
			c0-1.733,0.675-3.363,1.901-4.588c2.529-2.53,6.646-2.53,9.176,0l0,0c0,0,0,0,0,0c1.226,1.225,1.9,2.855,1.9,4.588
			c0,1.733-0.675,3.363-1.9,4.588C487.776,12.592,486.115,13.224,484.453,13.224z M484.454,1.752c-1.278,0-2.555,0.486-3.528,1.459
			c-0.942,0.942-1.461,2.195-1.461,3.528s0.519,2.585,1.461,3.528c1.946,1.945,5.11,1.945,7.055,0
			c0.942-0.942,1.461-2.195,1.461-3.528s-0.519-2.585-1.461-3.528l0,0C487.008,2.239,485.731,1.752,484.454,1.752z"/>
	</g>
	<g>
		<path fill="#ACA3D4" d="M132.119,107.83c-1.662,0-3.323-0.632-4.588-1.897c-1.226-1.225-1.9-2.855-1.9-4.588
			c0-1.733,0.675-3.363,1.9-4.588c2.53-2.53,6.646-2.53,9.176,0l0,0c1.226,1.226,1.901,2.855,1.901,4.588
			c0,1.733-0.675,3.363-1.901,4.588C135.442,107.198,133.78,107.83,132.119,107.83z M132.119,96.359
			c-1.278,0-2.555,0.486-3.528,1.458c-0.942,0.942-1.461,2.195-1.461,3.528s0.519,2.585,1.461,3.528c1.945,1.945,5.11,1.945,7.055,0
			c0.942-0.942,1.461-2.195,1.461-3.528c0-1.332-0.519-2.585-1.461-3.528C134.674,96.845,133.396,96.359,132.119,96.359z"/>
	</g>
	<g>
		<path fill="#ACA3D4" d="M467.016,412.098c-1.733,0-3.363-0.675-4.588-1.901c-1.226-1.225-1.901-2.855-1.901-4.588
			c0-1.733,0.675-3.363,1.901-4.588c1.225-1.226,2.854-1.9,4.588-1.9c1.733,0,3.363,0.675,4.588,1.9l0,0l0,0
			c1.226,1.226,1.901,2.855,1.901,4.588c0,1.733-0.675,3.363-1.901,4.588C470.378,411.423,468.749,412.098,467.016,412.098z
			 M467.016,400.62c-1.333,0-2.585,0.519-3.527,1.461c-0.942,0.942-1.461,2.195-1.461,3.528s0.519,2.585,1.461,3.528
			c0.942,0.942,2.195,1.461,3.527,1.461s2.585-0.519,3.527-1.461c0.942-0.942,1.461-2.195,1.461-3.528s-0.519-2.585-1.461-3.528l0,0
			C469.601,401.139,468.348,400.62,467.016,400.62z"/>
	</g>
	<path fill="#ACA3D4" d="M637.85,102.495c-1.226-1.226-2.855-1.9-4.588-1.9s-3.363,0.675-4.588,1.9
		c-1.356,1.356-1.979,3.169-1.88,4.949l-13.798,3.943c-0.217-2.239-1.18-4.418-2.891-6.129c-1.721-1.721-3.915-2.685-6.167-2.895
		l3.2-13.199c0.645,0.21,1.323,0.325,2.021,0.325c1.733,0,3.363-0.675,4.588-1.901c2.53-2.53,2.53-6.646,0-9.176
		c-1.226-1.226-2.855-1.9-4.588-1.9s-3.363,0.675-4.588,1.9c-1.226,1.226-1.901,2.855-1.901,4.588c0,1.733,0.675,3.363,1.901,4.588
		c0.36,0.36,0.758,0.667,1.18,0.928l-3.354,13.83c-2.371,0.14-4.703,1.104-6.51,2.911c-3.919,3.92-3.919,10.297,0,14.217
		c1.959,1.96,4.534,2.939,7.108,2.939c2.574,0,5.148-0.979,7.108-2.939c1.814-1.814,2.777-4.154,2.912-6.533l14.027-4.009
		c0.297,1.003,0.84,1.949,1.63,2.739c1.225,1.226,2.854,1.9,4.588,1.9s3.363-0.675,4.588-1.9
		C640.379,109.142,640.379,105.025,637.85,102.495z M604.169,83c0-1.332,0.519-2.585,1.461-3.527s2.195-1.461,3.527-1.461
		s2.585,0.519,3.528,1.461c1.944,1.945,1.944,5.11,0,7.055c-0.942,0.942-2.195,1.461-3.528,1.461s-2.585-0.52-3.527-1.461
		S604.169,84.333,604.169,83z M609.043,118.414c-3.335,3.335-8.761,3.334-12.096,0c-3.334-3.335-3.334-8.761,0-12.096
		c1.667-1.667,3.857-2.501,6.048-2.501c2.19,0,4.38,0.834,6.048,2.501C612.377,109.653,612.377,115.079,609.043,118.414z
		 M636.789,110.611c-0.942,0.942-2.195,1.461-3.528,1.461s-2.585-0.519-3.527-1.461c-1.945-1.945-1.945-5.11,0-7.056
		c0.942-0.942,2.195-1.461,3.527-1.461s2.585,0.519,3.528,1.461C638.733,105.501,638.733,108.666,636.789,110.611z"/>
	<g>
		<circle fill="#FF9B73" cx="387.53" cy="133.726" r="18.434"/>
	</g>
	<g>
		<polygon fill="#171321" points="385.048,140.201 379.552,134.705 380.612,133.645 385.048,138.08 394.449,128.679 395.509,129.74 
					"/>
	</g>
</g>
<linearGradient id="SVGID_1_" gradientUnits="userSpaceOnUse" x1="76.3349" y1="236.1557" x2="306.6627" y2="475.8929">
	<stop  offset="0.0738" style="stop-color:#B593FF;stop-opacity:0"/>
	<stop  offset="0.5" style="stop-color:#B593FF;stop-opacity:0.2"/>
	<stop  offset="0.9312" style="stop-color:#B593FF;stop-opacity:0"/>
</linearGradient>
<path fill="url(#SVGID_1_)" d="M203.483,510.45V548h179.815v-37.55c0-191.31-155.641-346.953-346.95-346.953H1.894v179.815h34.454
	C128.507,343.312,203.483,418.289,203.483,510.45z"/>
</svg>
